module gitlab.com/sjiamnocna/gormrest

go 1.20

require (
	firebase.google.com/go/v4 v4.12.1
	github.com/getsentry/sentry-go v0.22.0
	github.com/gin-gonic/gin v1.9.1
	github.com/golang-jwt/jwt/v4 v4.5.0
	github.com/google/uuid v1.3.0
	github.com/xhit/go-simple-mail/v2 v2.15.0
	gitlab.com/sjiamnocna/goethe v0.0.0-20230906172107-ba7e2e603bb7
	golang.org/x/crypto v0.11.0
	google.golang.org/api v0.114.0
	gorm.io/driver/mysql v1.5.1
	gorm.io/gorm v1.25.2
)

require (
	cloud.google.com/go v0.110.0 // indirect
	cloud.google.com/go/compute v1.18.0 // indirect
	cloud.google.com/go/compute/metadata v0.2.3 // indirect
	cloud.google.com/go/firestore v1.9.0 // indirect
	cloud.google.com/go/iam v0.13.0 // indirect
	cloud.google.com/go/longrunning v0.4.1 // indirect
	cloud.google.com/go/storage v1.30.1 // indirect
	github.com/MicahParks/keyfunc v1.9.0 // indirect
	github.com/bytedance/sonic v1.10.0-rc3 // indirect
	github.com/chenzhuoyu/base64x v0.0.0-20230717121745-296ad89f973d // indirect
	github.com/chenzhuoyu/iasm v0.9.0 // indirect
	github.com/gabriel-vasile/mimetype v1.4.2 // indirect
	github.com/gin-contrib/sse v0.1.0 // indirect
	github.com/go-playground/locales v0.14.1 // indirect
	github.com/go-playground/universal-translator v0.18.1 // indirect
	github.com/go-playground/validator/v10 v10.14.1 // indirect
	github.com/go-sql-driver/mysql v1.7.0 // indirect
	github.com/go-test/deep v1.1.0 // indirect
	github.com/goccy/go-json v0.10.2 // indirect
	github.com/golang/groupcache v0.0.0-20210331224755-41bb18bfe9da // indirect
	github.com/golang/protobuf v1.5.3 // indirect
	github.com/google/go-cmp v0.5.9 // indirect
	github.com/googleapis/enterprise-certificate-proxy v0.2.3 // indirect
	github.com/googleapis/gax-go/v2 v2.8.0 // indirect
	github.com/jinzhu/inflection v1.0.0 // indirect
	github.com/jinzhu/now v1.1.5 // indirect
	github.com/json-iterator/go v1.1.12 // indirect
	github.com/klauspost/cpuid/v2 v2.2.5 // indirect
	github.com/leodido/go-urn v1.2.4 // indirect
	github.com/mattn/go-isatty v0.0.19 // indirect
	github.com/modern-go/concurrent v0.0.0-20180306012644-bacd9c7ef1dd // indirect
	github.com/modern-go/reflect2 v1.0.2 // indirect
	github.com/pelletier/go-toml/v2 v2.0.9 // indirect
	github.com/toorop/go-dkim v0.0.0-20201103131630-e1cd1a0a5208 // indirect
	github.com/twitchyliquid64/golang-asm v0.15.1 // indirect
	github.com/ugorji/go/codec v1.2.11 // indirect
	go.opencensus.io v0.24.0 // indirect
	golang.org/x/arch v0.4.0 // indirect
	golang.org/x/net v0.12.0 // indirect
	golang.org/x/oauth2 v0.6.0 // indirect
	golang.org/x/sync v0.1.0 // indirect
	golang.org/x/sys v0.10.0 // indirect
	golang.org/x/text v0.11.0 // indirect
	golang.org/x/time v0.3.0 // indirect
	golang.org/x/xerrors v0.0.0-20220907171357-04be3eba64a2 // indirect
	google.golang.org/appengine v1.6.7 // indirect
	google.golang.org/appengine/v2 v2.0.2 // indirect
	google.golang.org/genproto v0.0.0-20230320184635-7606e756e683 // indirect
	google.golang.org/grpc v1.53.0 // indirect
	google.golang.org/protobuf v1.31.0 // indirect
	gopkg.in/yaml.v3 v3.0.1 // indirect
)
